<svg xmlns="http://www.w3.org/2000/svg" xmlns:xlink="http://www.w3.org/1999/xlink" width="1921.579" height="165.789" viewBox="0 0 1921.579 165.789">
  <defs>
    <style>
      .cls-1 {
        fill: url(#linear-gradient);
      }
    </style>
    <linearGradient id="linear-gradient" x1="0.5" x2="0.5" y2="1" gradientUnits="objectBoundingBox">
      <stop offset="0" stop-color="#5a52d8"/>
      <stop offset="1" stop-color="#6c63ff"/>
    </linearGradient>
  </defs>
  <path id="section_start" class="cls-1" d="M0,1031.514s265.263-123.56,421.579-43.793,366.316,68.818,405.789,61,241.579-139.2,356.842-104.791,301.579,143.893,380.526,104.791,356.842-134.508,356.842-134.508V1080H0Z" transform="translate(0 -914.211)"/>
</svg>
